Tools to query OMOP conCEPTs for standard health vocabularies (all pros no cons!) • omopcept
…
concept_code
source code

valid_start_date

valid_end_date

invalid_reason

omop_names(): query concepts by their names

omop_names("chemotherapy", v_ids="LOINC")
#> # A tibble: 71 × 10
#>    concept_id concept_name              domain_id vocabulary_id concept_class_id
#>         <int> <chr>                     <chr>     <chr>         <chr>           
#>  1    1035179 Chemotherapy - IV         Meas Val… LOINC         Answer          
#>  2    1035159 Chemotherapy - Oral       Meas Val… LOINC         Answer          
#>  3    1035128 Chemotherapy - Other      Meas Val… LOINC         Answer          
#>  4   45882480 Chemotherapy, NOS         Meas Val… LOINC         Answer          
#>  5   45876436 Chemotherapy Administered Meas Val… LOINC         Answer          
#>  6   45884295 Unknown if any chemother… Meas Val… LOINC         Answer          
#>  7   45880125 No chemotherapy administ… Meas Val… LOINC         Answer          
#>  8   45879751 Chemotherapy              Meas Val… LOINC         Answer          
#>  9   45882373 Chemotherapy spill        Meas Val… LOINC         Answer          
#> 10   45878374 Chemotherapy, single age… Meas Val… LOINC         Answer          
#> # ℹ 61 more rows
#> # ℹ 5 more variables: standard_concept <chr>, concept_code <chr>,
#> #   valid_start_date <date>, valid_end_date <date>, invalid_reason <chr>

omop_names("chemotherapy", v_ids=c("LOINC","SNOMED"), d_ids=c("Observation","Procedure"))
#> # A tibble: 316 × 10
#>    concept_id concept_name              domain_id vocabulary_id concept_class_id
#>         <int> <chr>                     <chr>     <chr>         <chr>           
#>  1   36305649 Chemotherapy infusion st… Observat… LOINC         Clinical Observ…
#>  2   36305185 Chemotherapy infusion st… Observat… LOINC         Clinical Observ…
#>  3   36305554 Chemotherapy infusion st… Observat… LOINC         Clinical Observ…
#>  4   36305537 Chemotherapy infusion st… Observat… LOINC         Clinical Observ…
#>  5   36660670 Cancer chemotherapy rece… Observat… LOINC         Clinical Observ…
#>  6    3046488 Chemotherapy [Minimum Da… Observat… LOINC         Survey          
#>  7   40768860 Cancer chemotherapy rece… Observat… LOINC         Clinical Observ…
#>  8   36303659 Guidance for chemoemboli… Procedure LOINC         Clinical Observ…
#>  9    1024644 Guidance for chemoemboli… Observat… LOINC         LOINC Component 
#> 10    1004252 Flag for Date 1st chemot… Observat… LOINC         LOINC Component 
#> # ℹ 306 more rows
#> # ℹ 5 more variables: standard_concept <chr>, concept_code <chr>,
#> #   valid_start_date <date>, valid_end_date <date>, invalid_reason <chr>
…
