find omop concept descendants of one passed — omop_descendants • omopcept
…
messages
whether to print info messages, default=TRUE

    Value

    a dataframe of concepts and attributes

    Examples

omop_descendants(1633308)
#> querying concept descendants of: AJCC/UICC Stage 4 - may take a few seconds
#> returning 119 concepts
#> # A tibble: 119 × 14
#>    ancestor_concept_id ancestor_name     concept_id min_levels_of_separation
#>                  <int> <chr>                  <int>                    <int>
#>  1             1633308 AJCC/UICC Stage 4    1634451                        3
#>  2             1633308 AJCC/UICC Stage 4    1635450                        2
#>  3             1633308 AJCC/UICC Stage 4    1634487                        3
#>  4             1633308 AJCC/UICC Stage 4    1634688                        1
#>  5             1633308 AJCC/UICC Stage 4    1633523                        3
#>  6             1633308 AJCC/UICC Stage 4    1633985                        3
#>  7             1633308 AJCC/UICC Stage 4    1635246                        3
#>  8             1633308 AJCC/UICC Stage 4    1633786                        4
#>  9             1633308 AJCC/UICC Stage 4    1634447                        1
#> 10             1633308 AJCC/UICC Stage 4    1634005                        3
#> # ℹ 109 more rows
#> # ℹ 10 more variables: max_levels_of_separation <int>, concept_name <chr>,
#> #   domain_id <chr>, vocabulary_id <chr>, concept_class_id <chr>,
#> #   standard_concept <chr>, concept_code <chr>, valid_start_date <date>,
#> #   valid_end_date <date>, invalid_reason <chr>
…
